^C:\USERS\BLANK\DESKTOP\CODE FOR 9-4-18\EDGE DETECTION PLANE FROM TRAILER ANALYSIS\R2000TESTAPP\X64\RTSSRELEASE\ATTHARVESTERDRIVERMULTIPLEALGORITHMMETHOD.OBJ
C:\WINDOWS\GLOBALIZATION\SORTING\SORTDEFAULT.NLS
C:\PROGRAM FILES\INTERVALZERO\RTX64 SDK\3.2\LIB\AMD64\STARTUPCRT.LIB
C:\PROGRAM FILES (X86)\MICROSOFT VISUAL STUDIO 14.0\VC\LIB\AMD64\LIBCMT.LIB
C:\PROGRAM FILES (X86)\MICROSOFT VISUAL STUDIO 14.0\VC\LIB\AMD64\LIBCPMT.LIB
C:\PROGRAM FILES (X86)\WINDOWS KITS\10\LIB\10.0.10240.0\UCRT\X64\LIBUCRT.LIB
C:\PROGRAM FILES (X86)\MICROSOFT VISUAL STUDIO 14.0\VC\LIB\AMD64\LIBVCRUNTIME.LIB
C:\PROGRAM FILES\INTERVALZERO\RTX64 SDK\3.2\LIB\AMD64\RTX_RTSS.LIB
C:\PROGRAM FILES\INTERVALZERO\RTX64 SDK\3.2\LIB\AMD64\RTTCPIP.LIB
C:\USERS\BLANK\DESKTOP\CODE FOR 9-4-18\EDGE DETECTION PLANE FROM TRAILER ANALYSIS\X64\RTSSRELEASE\R2000CLIENT.LIB
C:\USERS\BLANK\DESKTOP\CODE FOR 9-4-18\EDGE DETECTION PLANE FROM TRAILER ANALYSIS\R2000TESTAPP\X64\RTSSRELEASE\ATTHARVESTERDRIVERMULTIPLEALGORITHMMETHOD.OBJ
C:\WINDOWS\SYSTEM32\TZRES.DLL
