^C:\USERS\BLANK\DESKTOP\ATTWORKINGCODE\ATTPRESERVEDFROM9-29-2018\EDGE DETECTION PLANE FROM TRAILER ANALYSIS\R2000CLIENT\CONVERSIONFUNCTIONS.CPP
/c /I"C:\PROGRAM FILES\INTERVALZERO\RTX64 SDK\3.4\INCLUDE" /Zi /nologo /W3 /WX- /Ox /Oi /D _AMD64_ /D UNDER_RTSS /D NDEBUG /D _UNICODE /D UNICODE /D _UNICODE /D UNICODE /Gm- /EHsc /MT /GS- /Gy /fp:precise /Zc:wchar_t /Zc:forScope /Zc:inline /GR- /Fo"X64\RTSSRELEASE\\" /Fd"X64\RTSSRELEASE\R2000CLIENT.PDB" /Gd /TP /openmp- /Gs99999  C:\USERS\BLANK\DESKTOP\ATTWORKINGCODE\ATTPRESERVEDFROM9-29-2018\EDGE DETECTION PLANE FROM TRAILER ANALYSIS\R2000CLIENT\CONVERSIONFUNCTIONS.CPP
^C:\USERS\BLANK\DESKTOP\ATTWORKINGCODE\ATTPRESERVEDFROM9-29-2018\EDGE DETECTION PLANE FROM TRAILER ANALYSIS\R2000CLIENT\HTTPSOCKET.CPP
/c /I"C:\PROGRAM FILES\INTERVALZERO\RTX64 SDK\3.4\INCLUDE" /Zi /nologo /W3 /WX- /Ox /Oi /D _AMD64_ /D UNDER_RTSS /D NDEBUG /D _UNICODE /D UNICODE /D _UNICODE /D UNICODE /Gm- /EHsc /MT /GS- /Gy /fp:precise /Zc:wchar_t /Zc:forScope /Zc:inline /GR- /Fo"X64\RTSSRELEASE\\" /Fd"X64\RTSSRELEASE\R2000CLIENT.PDB" /Gd /TP /openmp- /Gs99999  C:\USERS\BLANK\DESKTOP\ATTWORKINGCODE\ATTPRESERVEDFROM9-29-2018\EDGE DETECTION PLANE FROM TRAILER ANALYSIS\R2000CLIENT\HTTPSOCKET.CPP
^C:\USERS\BLANK\DESKTOP\ATTWORKINGCODE\ATTPRESERVEDFROM9-29-2018\EDGE DETECTION PLANE FROM TRAILER ANALYSIS\R2000CLIENT\PACKETHEADER.CPP
/c /I"C:\PROGRAM FILES\INTERVALZERO\RTX64 SDK\3.4\INCLUDE" /Zi /nologo /W3 /WX- /Ox /Oi /D _AMD64_ /D UNDER_RTSS /D NDEBUG /D _UNICODE /D UNICODE /D _UNICODE /D UNICODE /Gm- /EHsc /MT /GS- /Gy /fp:precise /Zc:wchar_t /Zc:forScope /Zc:inline /GR- /Fo"X64\RTSSRELEASE\\" /Fd"X64\RTSSRELEASE\R2000CLIENT.PDB" /Gd /TP /openmp- /Gs99999  C:\USERS\BLANK\DESKTOP\ATTWORKINGCODE\ATTPRESERVEDFROM9-29-2018\EDGE DETECTION PLANE FROM TRAILER ANALYSIS\R2000CLIENT\PACKETHEADER.CPP
^C:\USERS\BLANK\DESKTOP\ATTWORKINGCODE\ATTPRESERVEDFROM9-29-2018\EDGE DETECTION PLANE FROM TRAILER ANALYSIS\R2000CLIENT\PACKETPARSER.CPP
/c /I"C:\PROGRAM FILES\INTERVALZERO\RTX64 SDK\3.4\INCLUDE" /Zi /nologo /W3 /WX- /Ox /Oi /D _AMD64_ /D UNDER_RTSS /D NDEBUG /D _UNICODE /D UNICODE /D _UNICODE /D UNICODE /Gm- /EHsc /MT /GS- /Gy /fp:precise /Zc:wchar_t /Zc:forScope /Zc:inline /GR- /Fo"X64\RTSSRELEASE\\" /Fd"X64\RTSSRELEASE\R2000CLIENT.PDB" /Gd /TP /openmp- /Gs99999  C:\USERS\BLANK\DESKTOP\ATTWORKINGCODE\ATTPRESERVEDFROM9-29-2018\EDGE DETECTION PLANE FROM TRAILER ANALYSIS\R2000CLIENT\PACKETPARSER.CPP
^C:\USERS\BLANK\DESKTOP\ATTWORKINGCODE\ATTPRESERVEDFROM9-29-2018\EDGE DETECTION PLANE FROM TRAILER ANALYSIS\R2000CLIENT\R2000CONFIG.CPP
/c /I"C:\PROGRAM FILES\INTERVALZERO\RTX64 SDK\3.4\INCLUDE" /Zi /nologo /W3 /WX- /Ox /Oi /D _AMD64_ /D UNDER_RTSS /D NDEBUG /D _UNICODE /D UNICODE /D _UNICODE /D UNICODE /Gm- /EHsc /MT /GS- /Gy /fp:precise /Zc:wchar_t /Zc:forScope /Zc:inline /GR- /Fo"X64\RTSSRELEASE\\" /Fd"X64\RTSSRELEASE\R2000CLIENT.PDB" /Gd /TP /openmp- /Gs99999  C:\USERS\BLANK\DESKTOP\ATTWORKINGCODE\ATTPRESERVEDFROM9-29-2018\EDGE DETECTION PLANE FROM TRAILER ANALYSIS\R2000CLIENT\R2000CONFIG.CPP
^C:\USERS\BLANK\DESKTOP\ATTWORKINGCODE\ATTPRESERVEDFROM9-29-2018\EDGE DETECTION PLANE FROM TRAILER ANALYSIS\R2000CLIENT\R2000INTERFACE.CPP
/c /I"C:\PROGRAM FILES\INTERVALZERO\RTX64 SDK\3.4\INCLUDE" /Zi /nologo /W3 /WX- /Ox /Oi /D _AMD64_ /D UNDER_RTSS /D NDEBUG /D _UNICODE /D UNICODE /D _UNICODE /D UNICODE /Gm- /EHsc /MT /GS- /Gy /fp:precise /Zc:wchar_t /Zc:forScope /Zc:inline /GR- /Fo"X64\RTSSRELEASE\\" /Fd"X64\RTSSRELEASE\R2000CLIENT.PDB" /Gd /TP /openmp- /Gs99999  C:\USERS\BLANK\DESKTOP\ATTWORKINGCODE\ATTPRESERVEDFROM9-29-2018\EDGE DETECTION PLANE FROM TRAILER ANALYSIS\R2000CLIENT\R2000INTERFACE.CPP
^C:\USERS\BLANK\DESKTOP\ATTWORKINGCODE\ATTPRESERVEDFROM9-29-2018\EDGE DETECTION PLANE FROM TRAILER ANALYSIS\R2000CLIENT\DATACLIENT.CPP
/c /I"C:\PROGRAM FILES\INTERVALZERO\RTX64 SDK\3.4\INCLUDE" /Zi /nologo /W3 /WX- /Ox /Oi /D _AMD64_ /D UNDER_RTSS /D NDEBUG /D _UNICODE /D UNICODE /D _UNICODE /D UNICODE /Gm- /EHsc /MT /GS- /Gy /fp:precise /Zc:wchar_t /Zc:forScope /Zc:inline /GR- /Fo"X64\RTSSRELEASE\\" /Fd"X64\RTSSRELEASE\R2000CLIENT.PDB" /Gd /TP /openmp- /Gs99999  C:\USERS\BLANK\DESKTOP\ATTWORKINGCODE\ATTPRESERVEDFROM9-29-2018\EDGE DETECTION PLANE FROM TRAILER ANALYSIS\R2000CLIENT\DATACLIENT.CPP
^C:\USERS\BLANK\DESKTOP\ATTWORKINGCODE\ATTPRESERVEDFROM9-29-2018\EDGE DETECTION PLANE FROM TRAILER ANALYSIS\R2000CLIENT\RESPONSE.CPP
/c /I"C:\PROGRAM FILES\INTERVALZERO\RTX64 SDK\3.4\INCLUDE" /Zi /nologo /W3 /WX- /Ox /Oi /D _AMD64_ /D UNDER_RTSS /D NDEBUG /D _UNICODE /D UNICODE /D _UNICODE /D UNICODE /Gm- /EHsc /MT /GS- /Gy /fp:precise /Zc:wchar_t /Zc:forScope /Zc:inline /GR- /Fo"X64\RTSSRELEASE\\" /Fd"X64\RTSSRELEASE\R2000CLIENT.PDB" /Gd /TP /openmp- /Gs99999  C:\USERS\BLANK\DESKTOP\ATTWORKINGCODE\ATTPRESERVEDFROM9-29-2018\EDGE DETECTION PLANE FROM TRAILER ANALYSIS\R2000CLIENT\RESPONSE.CPP
^C:\USERS\BLANK\DESKTOP\ATTWORKINGCODE\ATTPRESERVEDFROM9-29-2018\EDGE DETECTION PLANE FROM TRAILER ANALYSIS\R2000CLIENT\SCANSIGNALER.CPP
/c /I"C:\PROGRAM FILES\INTERVALZERO\RTX64 SDK\3.4\INCLUDE" /Zi /nologo /W3 /WX- /Ox /Oi /D _AMD64_ /D UNDER_RTSS /D NDEBUG /D _UNICODE /D UNICODE /D _UNICODE /D UNICODE /Gm- /EHsc /MT /GS- /Gy /fp:precise /Zc:wchar_t /Zc:forScope /Zc:inline /GR- /Fo"X64\RTSSRELEASE\\" /Fd"X64\RTSSRELEASE\R2000CLIENT.PDB" /Gd /TP /openmp- /Gs99999  C:\USERS\BLANK\DESKTOP\ATTWORKINGCODE\ATTPRESERVEDFROM9-29-2018\EDGE DETECTION PLANE FROM TRAILER ANALYSIS\R2000CLIENT\SCANSIGNALER.CPP
