^C:\USERS\BLANK\DESKTOP\ATTWORKINGCODE\ATTPRESERVEDFROM9-29-2018\EDGE DETECTION PLANE FROM TRAILER ANALYSIS\R2000CLIENT\CONVERSIONFUNCTIONS.CPP|C:\USERS\BLANK\DESKTOP\ATTWORKINGCODE\ATTPRESERVEDFROM9-29-2018\EDGE DETECTION PLANE FROM TRAILER ANALYSIS\R2000CLIENT\DATACLIENT.CPP|C:\USERS\BLANK\DESKTOP\ATTWORKINGCODE\ATTPRESERVEDFROM9-29-2018\EDGE DETECTION PLANE FROM TRAILER ANALYSIS\R2000CLIENT\HTTPSOCKET.CPP|C:\USERS\BLANK\DESKTOP\ATTWORKINGCODE\ATTPRESERVEDFROM9-29-2018\EDGE DETECTION PLANE FROM TRAILER ANALYSIS\R2000CLIENT\PACKETHEADER.CPP|C:\USERS\BLANK\DESKTOP\ATTWORKINGCODE\ATTPRESERVEDFROM9-29-2018\EDGE DETECTION PLANE FROM TRAILER ANALYSIS\R2000CLIENT\PACKETPARSER.CPP|C:\USERS\BLANK\DESKTOP\ATTWORKINGCODE\ATTPRESERVEDFROM9-29-2018\EDGE DETECTION PLANE FROM TRAILER ANALYSIS\R2000CLIENT\R2000CONFIG.CPP|C:\USERS\BLANK\DESKTOP\ATTWORKINGCODE\ATTPRESERVEDFROM9-29-2018\EDGE DETECTION PLANE FROM TRAILER ANALYSIS\R2000CLIENT\R2000INTERFACE.CPP|C:\USERS\BLANK\DESKTOP\ATTWORKINGCODE\ATTPRESERVEDFROM9-29-2018\EDGE DETECTION PLANE FROM TRAILER ANALYSIS\R2000CLIENT\RESPONSE.CPP|C:\USERS\BLANK\DESKTOP\ATTWORKINGCODE\ATTPRESERVEDFROM9-29-2018\EDGE DETECTION PLANE FROM TRAILER ANALYSIS\R2000CLIENT\SCANSIGNALER.CPP
C:\USERS\BLANK\DESKTOP\ATTWORKINGCODE\ATTPRESERVEDFROM9-29-2018\EDGE DETECTION PLANE FROM TRAILER ANALYSIS\R2000CLIENT\X64\RTSSRELEASE\R2000CLIENT.PDB
C:\USERS\BLANK\DESKTOP\ATTWORKINGCODE\ATTPRESERVEDFROM9-29-2018\EDGE DETECTION PLANE FROM TRAILER ANALYSIS\R2000CLIENT\X64\RTSSRELEASE\SCANSIGNALER.OBJ
C:\USERS\BLANK\DESKTOP\ATTWORKINGCODE\ATTPRESERVEDFROM9-29-2018\EDGE DETECTION PLANE FROM TRAILER ANALYSIS\R2000CLIENT\X64\RTSSRELEASE\RESPONSE.OBJ
C:\USERS\BLANK\DESKTOP\ATTWORKINGCODE\ATTPRESERVEDFROM9-29-2018\EDGE DETECTION PLANE FROM TRAILER ANALYSIS\R2000CLIENT\X64\RTSSRELEASE\DATACLIENT.OBJ
C:\USERS\BLANK\DESKTOP\ATTWORKINGCODE\ATTPRESERVEDFROM9-29-2018\EDGE DETECTION PLANE FROM TRAILER ANALYSIS\R2000CLIENT\X64\RTSSRELEASE\R2000INTERFACE.OBJ
C:\USERS\BLANK\DESKTOP\ATTWORKINGCODE\ATTPRESERVEDFROM9-29-2018\EDGE DETECTION PLANE FROM TRAILER ANALYSIS\R2000CLIENT\X64\RTSSRELEASE\R2000CONFIG.OBJ
C:\USERS\BLANK\DESKTOP\ATTWORKINGCODE\ATTPRESERVEDFROM9-29-2018\EDGE DETECTION PLANE FROM TRAILER ANALYSIS\R2000CLIENT\X64\RTSSRELEASE\PACKETPARSER.OBJ
C:\USERS\BLANK\DESKTOP\ATTWORKINGCODE\ATTPRESERVEDFROM9-29-2018\EDGE DETECTION PLANE FROM TRAILER ANALYSIS\R2000CLIENT\X64\RTSSRELEASE\PACKETHEADER.OBJ
C:\USERS\BLANK\DESKTOP\ATTWORKINGCODE\ATTPRESERVEDFROM9-29-2018\EDGE DETECTION PLANE FROM TRAILER ANALYSIS\R2000CLIENT\X64\RTSSRELEASE\HTTPSOCKET.OBJ
C:\USERS\BLANK\DESKTOP\ATTWORKINGCODE\ATTPRESERVEDFROM9-29-2018\EDGE DETECTION PLANE FROM TRAILER ANALYSIS\R2000CLIENT\X64\RTSSRELEASE\CONVERSIONFUNCTIONS.OBJ
^C:\USERS\BLANK\DESKTOP\ATTWORKINGCODE\ATTPRESERVEDFROM9-29-2018\EDGE DETECTION PLANE FROM TRAILER ANALYSIS\R2000CLIENT\CONVERSIONFUNCTIONS.CPP
C:\USERS\BLANK\DESKTOP\ATTWORKINGCODE\ATTPRESERVEDFROM9-29-2018\EDGE DETECTION PLANE FROM TRAILER ANALYSIS\R2000CLIENT\X64\RTSSRELEASE\R2000CLIENT.PDB
^C:\USERS\BLANK\DESKTOP\ATTWORKINGCODE\ATTPRESERVEDFROM9-29-2018\EDGE DETECTION PLANE FROM TRAILER ANALYSIS\R2000CLIENT\HTTPSOCKET.CPP
C:\USERS\BLANK\DESKTOP\ATTWORKINGCODE\ATTPRESERVEDFROM9-29-2018\EDGE DETECTION PLANE FROM TRAILER ANALYSIS\R2000CLIENT\X64\RTSSRELEASE\R2000CLIENT.PDB
^C:\USERS\BLANK\DESKTOP\ATTWORKINGCODE\ATTPRESERVEDFROM9-29-2018\EDGE DETECTION PLANE FROM TRAILER ANALYSIS\R2000CLIENT\PACKETHEADER.CPP
C:\USERS\BLANK\DESKTOP\ATTWORKINGCODE\ATTPRESERVEDFROM9-29-2018\EDGE DETECTION PLANE FROM TRAILER ANALYSIS\R2000CLIENT\X64\RTSSRELEASE\R2000CLIENT.PDB
^C:\USERS\BLANK\DESKTOP\ATTWORKINGCODE\ATTPRESERVEDFROM9-29-2018\EDGE DETECTION PLANE FROM TRAILER ANALYSIS\R2000CLIENT\PACKETPARSER.CPP
C:\USERS\BLANK\DESKTOP\ATTWORKINGCODE\ATTPRESERVEDFROM9-29-2018\EDGE DETECTION PLANE FROM TRAILER ANALYSIS\R2000CLIENT\X64\RTSSRELEASE\R2000CLIENT.PDB
^C:\USERS\BLANK\DESKTOP\ATTWORKINGCODE\ATTPRESERVEDFROM9-29-2018\EDGE DETECTION PLANE FROM TRAILER ANALYSIS\R2000CLIENT\R2000CONFIG.CPP
C:\USERS\BLANK\DESKTOP\ATTWORKINGCODE\ATTPRESERVEDFROM9-29-2018\EDGE DETECTION PLANE FROM TRAILER ANALYSIS\R2000CLIENT\X64\RTSSRELEASE\R2000CLIENT.PDB
^C:\USERS\BLANK\DESKTOP\ATTWORKINGCODE\ATTPRESERVEDFROM9-29-2018\EDGE DETECTION PLANE FROM TRAILER ANALYSIS\R2000CLIENT\R2000INTERFACE.CPP
C:\USERS\BLANK\DESKTOP\ATTWORKINGCODE\ATTPRESERVEDFROM9-29-2018\EDGE DETECTION PLANE FROM TRAILER ANALYSIS\R2000CLIENT\X64\RTSSRELEASE\R2000CLIENT.PDB
^C:\USERS\BLANK\DESKTOP\ATTWORKINGCODE\ATTPRESERVEDFROM9-29-2018\EDGE DETECTION PLANE FROM TRAILER ANALYSIS\R2000CLIENT\DATACLIENT.CPP
C:\USERS\BLANK\DESKTOP\ATTWORKINGCODE\ATTPRESERVEDFROM9-29-2018\EDGE DETECTION PLANE FROM TRAILER ANALYSIS\R2000CLIENT\X64\RTSSRELEASE\R2000CLIENT.PDB
^C:\USERS\BLANK\DESKTOP\ATTWORKINGCODE\ATTPRESERVEDFROM9-29-2018\EDGE DETECTION PLANE FROM TRAILER ANALYSIS\R2000CLIENT\RESPONSE.CPP
C:\USERS\BLANK\DESKTOP\ATTWORKINGCODE\ATTPRESERVEDFROM9-29-2018\EDGE DETECTION PLANE FROM TRAILER ANALYSIS\R2000CLIENT\X64\RTSSRELEASE\R2000CLIENT.PDB
^C:\USERS\BLANK\DESKTOP\ATTWORKINGCODE\ATTPRESERVEDFROM9-29-2018\EDGE DETECTION PLANE FROM TRAILER ANALYSIS\R2000CLIENT\SCANSIGNALER.CPP
C:\USERS\BLANK\DESKTOP\ATTWORKINGCODE\ATTPRESERVEDFROM9-29-2018\EDGE DETECTION PLANE FROM TRAILER ANALYSIS\R2000CLIENT\X64\RTSSRELEASE\R2000CLIENT.PDB
