^C:\USERS\BLANK\DESKTOP\ATTWORKINGCODE\ATTPRESERVEDFROM9-29-2018\EDGE DETECTION PLANE FROM TRAILER ANALYSIS\R2000CLIENT\X64\RTSSRELEASE\CONVERSIONFUNCTIONS.OBJ|C:\USERS\BLANK\DESKTOP\ATTWORKINGCODE\ATTPRESERVEDFROM9-29-2018\EDGE DETECTION PLANE FROM TRAILER ANALYSIS\R2000CLIENT\X64\RTSSRELEASE\DATACLIENT.OBJ|C:\USERS\BLANK\DESKTOP\ATTWORKINGCODE\ATTPRESERVEDFROM9-29-2018\EDGE DETECTION PLANE FROM TRAILER ANALYSIS\R2000CLIENT\X64\RTSSRELEASE\HTTPSOCKET.OBJ|C:\USERS\BLANK\DESKTOP\ATTWORKINGCODE\ATTPRESERVEDFROM9-29-2018\EDGE DETECTION PLANE FROM TRAILER ANALYSIS\R2000CLIENT\X64\RTSSRELEASE\PACKETHEADER.OBJ|C:\USERS\BLANK\DESKTOP\ATTWORKINGCODE\ATTPRESERVEDFROM9-29-2018\EDGE DETECTION PLANE FROM TRAILER ANALYSIS\R2000CLIENT\X64\RTSSRELEASE\PACKETPARSER.OBJ|C:\USERS\BLANK\DESKTOP\ATTWORKINGCODE\ATTPRESERVEDFROM9-29-2018\EDGE DETECTION PLANE FROM TRAILER ANALYSIS\R2000CLIENT\X64\RTSSRELEASE\R2000CONFIG.OBJ|C:\USERS\BLANK\DESKTOP\ATTWORKINGCODE\ATTPRESERVEDFROM9-29-2018\EDGE DETECTION PLANE FROM TRAILER ANALYSIS\R2000CLIENT\X64\RTSSRELEASE\R2000INTERFACE.OBJ|C:\USERS\BLANK\DESKTOP\ATTWORKINGCODE\ATTPRESERVEDFROM9-29-2018\EDGE DETECTION PLANE FROM TRAILER ANALYSIS\R2000CLIENT\X64\RTSSRELEASE\RESPONSE.OBJ|C:\USERS\BLANK\DESKTOP\ATTWORKINGCODE\ATTPRESERVEDFROM9-29-2018\EDGE DETECTION PLANE FROM TRAILER ANALYSIS\R2000CLIENT\X64\RTSSRELEASE\SCANSIGNALER.OBJ
C:\WINDOWS\GLOBALIZATION\SORTING\SORTDEFAULT.NLS
C:\USERS\BLANK\DESKTOP\ATTWORKINGCODE\ATTPRESERVEDFROM9-29-2018\EDGE DETECTION PLANE FROM TRAILER ANALYSIS\R2000CLIENT\X64\RTSSRELEASE\CONVERSIONFUNCTIONS.OBJ
C:\WINDOWS\SYSTEM32\TZRES.DLL
C:\USERS\BLANK\DESKTOP\ATTWORKINGCODE\ATTPRESERVEDFROM9-29-2018\EDGE DETECTION PLANE FROM TRAILER ANALYSIS\R2000CLIENT\X64\RTSSRELEASE\HTTPSOCKET.OBJ
C:\USERS\BLANK\DESKTOP\ATTWORKINGCODE\ATTPRESERVEDFROM9-29-2018\EDGE DETECTION PLANE FROM TRAILER ANALYSIS\R2000CLIENT\X64\RTSSRELEASE\PACKETHEADER.OBJ
C:\USERS\BLANK\DESKTOP\ATTWORKINGCODE\ATTPRESERVEDFROM9-29-2018\EDGE DETECTION PLANE FROM TRAILER ANALYSIS\R2000CLIENT\X64\RTSSRELEASE\PACKETPARSER.OBJ
C:\USERS\BLANK\DESKTOP\ATTWORKINGCODE\ATTPRESERVEDFROM9-29-2018\EDGE DETECTION PLANE FROM TRAILER ANALYSIS\R2000CLIENT\X64\RTSSRELEASE\R2000CONFIG.OBJ
C:\USERS\BLANK\DESKTOP\ATTWORKINGCODE\ATTPRESERVEDFROM9-29-2018\EDGE DETECTION PLANE FROM TRAILER ANALYSIS\R2000CLIENT\X64\RTSSRELEASE\R2000INTERFACE.OBJ
C:\USERS\BLANK\DESKTOP\ATTWORKINGCODE\ATTPRESERVEDFROM9-29-2018\EDGE DETECTION PLANE FROM TRAILER ANALYSIS\R2000CLIENT\X64\RTSSRELEASE\DATACLIENT.OBJ
C:\USERS\BLANK\DESKTOP\ATTWORKINGCODE\ATTPRESERVEDFROM9-29-2018\EDGE DETECTION PLANE FROM TRAILER ANALYSIS\R2000CLIENT\X64\RTSSRELEASE\RESPONSE.OBJ
C:\USERS\BLANK\DESKTOP\ATTWORKINGCODE\ATTPRESERVEDFROM9-29-2018\EDGE DETECTION PLANE FROM TRAILER ANALYSIS\R2000CLIENT\X64\RTSSRELEASE\SCANSIGNALER.OBJ
