^F:\R2000_CLIENT\R2000CLIENT\X64\DEBUG\CONVERSIONFUNCTIONS.OBJ|F:\R2000_CLIENT\R2000CLIENT\X64\DEBUG\DATACLIENT.OBJ|F:\R2000_CLIENT\R2000CLIENT\X64\DEBUG\HTTPSOCKET.OBJ|F:\R2000_CLIENT\R2000CLIENT\X64\DEBUG\PACKETHEADER.OBJ|F:\R2000_CLIENT\R2000CLIENT\X64\DEBUG\PACKETPARSER.OBJ|F:\R2000_CLIENT\R2000CLIENT\X64\DEBUG\R2000CONFIG.OBJ|F:\R2000_CLIENT\R2000CLIENT\X64\DEBUG\R2000INTERFACE.OBJ|F:\R2000_CLIENT\R2000CLIENT\X64\DEBUG\RESPONSE.OBJ|F:\R2000_CLIENT\R2000CLIENT\X64\DEBUG\SCANSIGNALER.OBJ
F:\R2000_CLIENT\X64\DEBUG\R2000CLIENT.LIB
^\\SERVER\FOLDER REDIRECTION\DCASON\DOCUMENTS\VISUAL STUDIO 2015\PROJECTS\EDGE DETECTION PLANE FROM TRAILER ANALYSIS\R2000CLIENT\X64\DEBUG\CONVERSIONFUNCTIONS.OBJ|\\SERVER\FOLDER REDIRECTION\DCASON\DOCUMENTS\VISUAL STUDIO 2015\PROJECTS\EDGE DETECTION PLANE FROM TRAILER ANALYSIS\R2000CLIENT\X64\DEBUG\DATACLIENT.OBJ|\\SERVER\FOLDER REDIRECTION\DCASON\DOCUMENTS\VISUAL STUDIO 2015\PROJECTS\EDGE DETECTION PLANE FROM TRAILER ANALYSIS\R2000CLIENT\X64\DEBUG\HTTPSOCKET.OBJ|\\SERVER\FOLDER REDIRECTION\DCASON\DOCUMENTS\VISUAL STUDIO 2015\PROJECTS\EDGE DETECTION PLANE FROM TRAILER ANALYSIS\R2000CLIENT\X64\DEBUG\PACKETHEADER.OBJ|\\SERVER\FOLDER REDIRECTION\DCASON\DOCUMENTS\VISUAL STUDIO 2015\PROJECTS\EDGE DETECTION PLANE FROM TRAILER ANALYSIS\R2000CLIENT\X64\DEBUG\PACKETPARSER.OBJ|\\SERVER\FOLDER REDIRECTION\DCASON\DOCUMENTS\VISUAL STUDIO 2015\PROJECTS\EDGE DETECTION PLANE FROM TRAILER ANALYSIS\R2000CLIENT\X64\DEBUG\R2000CONFIG.OBJ|\\SERVER\FOLDER REDIRECTION\DCASON\DOCUMENTS\VISUAL STUDIO 2015\PROJECTS\EDGE DETECTION PLANE FROM TRAILER ANALYSIS\R2000CLIENT\X64\DEBUG\R2000INTERFACE.OBJ|\\SERVER\FOLDER REDIRECTION\DCASON\DOCUMENTS\VISUAL STUDIO 2015\PROJECTS\EDGE DETECTION PLANE FROM TRAILER ANALYSIS\R2000CLIENT\X64\DEBUG\RESPONSE.OBJ|\\SERVER\FOLDER REDIRECTION\DCASON\DOCUMENTS\VISUAL STUDIO 2015\PROJECTS\EDGE DETECTION PLANE FROM TRAILER ANALYSIS\R2000CLIENT\X64\DEBUG\SCANSIGNALER.OBJ
\\SERVER\FOLDER REDIRECTION\DCASON\DOCUMENTS\VISUAL STUDIO 2015\PROJECTS\EDGE DETECTION PLANE FROM TRAILER ANALYSIS\X64\DEBUG\R2000CLIENT.LIB
