^\\SERVER\FOLDER REDIRECTION\DCASON\DOCUMENTS\R2000_CLIENT\R2000_CLIENT\R2000CLIENT\CONVERSIONFUNCTIONS.CPP|\\SERVER\FOLDER REDIRECTION\DCASON\DOCUMENTS\R2000_CLIENT\R2000_CLIENT\R2000CLIENT\DATACLIENT.CPP|\\SERVER\FOLDER REDIRECTION\DCASON\DOCUMENTS\R2000_CLIENT\R2000_CLIENT\R2000CLIENT\HTTPSOCKET.CPP|\\SERVER\FOLDER REDIRECTION\DCASON\DOCUMENTS\R2000_CLIENT\R2000_CLIENT\R2000CLIENT\PACKETHEADER.CPP|\\SERVER\FOLDER REDIRECTION\DCASON\DOCUMENTS\R2000_CLIENT\R2000_CLIENT\R2000CLIENT\PACKETPARSER.CPP|\\SERVER\FOLDER REDIRECTION\DCASON\DOCUMENTS\R2000_CLIENT\R2000_CLIENT\R2000CLIENT\R2000CONFIG.CPP|\\SERVER\FOLDER REDIRECTION\DCASON\DOCUMENTS\R2000_CLIENT\R2000_CLIENT\R2000CLIENT\R2000INTERFACE.CPP|\\SERVER\FOLDER REDIRECTION\DCASON\DOCUMENTS\R2000_CLIENT\R2000_CLIENT\R2000CLIENT\RESPONSE.CPP|\\SERVER\FOLDER REDIRECTION\DCASON\DOCUMENTS\R2000_CLIENT\R2000_CLIENT\R2000CLIENT\SCANSIGNALER.CPP
\\SERVER\FOLDER REDIRECTION\DCASON\DOCUMENTS\R2000_CLIENT\R2000_CLIENT\R2000CLIENT\X64\RTSSDEBUG\R2000CLIENT.PDB
\\SERVER\FOLDER REDIRECTION\DCASON\DOCUMENTS\R2000_CLIENT\R2000_CLIENT\R2000CLIENT\X64\RTSSDEBUG\SCANSIGNALER.OBJ
\\SERVER\FOLDER REDIRECTION\DCASON\DOCUMENTS\R2000_CLIENT\R2000_CLIENT\R2000CLIENT\X64\RTSSDEBUG\RESPONSE.OBJ
\\SERVER\FOLDER REDIRECTION\DCASON\DOCUMENTS\R2000_CLIENT\R2000_CLIENT\R2000CLIENT\X64\RTSSDEBUG\DATACLIENT.OBJ
\\SERVER\FOLDER REDIRECTION\DCASON\DOCUMENTS\R2000_CLIENT\R2000_CLIENT\R2000CLIENT\X64\RTSSDEBUG\R2000INTERFACE.OBJ
\\SERVER\FOLDER REDIRECTION\DCASON\DOCUMENTS\R2000_CLIENT\R2000_CLIENT\R2000CLIENT\X64\RTSSDEBUG\R2000CONFIG.OBJ
\\SERVER\FOLDER REDIRECTION\DCASON\DOCUMENTS\R2000_CLIENT\R2000_CLIENT\R2000CLIENT\X64\RTSSDEBUG\PACKETPARSER.OBJ
\\SERVER\FOLDER REDIRECTION\DCASON\DOCUMENTS\R2000_CLIENT\R2000_CLIENT\R2000CLIENT\X64\RTSSDEBUG\PACKETHEADER.OBJ
\\SERVER\FOLDER REDIRECTION\DCASON\DOCUMENTS\R2000_CLIENT\R2000_CLIENT\R2000CLIENT\X64\RTSSDEBUG\HTTPSOCKET.OBJ
\\SERVER\FOLDER REDIRECTION\DCASON\DOCUMENTS\R2000_CLIENT\R2000_CLIENT\R2000CLIENT\X64\RTSSDEBUG\CONVERSIONFUNCTIONS.OBJ
^\\SERVER\FOLDER REDIRECTION\DCASON\DOCUMENTS\R2000_CLIENT\R2000_CLIENT\R2000CLIENT\CONVERSIONFUNCTIONS.CPP
\\SERVER\FOLDER REDIRECTION\DCASON\DOCUMENTS\R2000_CLIENT\R2000_CLIENT\R2000CLIENT\X64\RTSSDEBUG\R2000CLIENT.PDB
^\\SERVER\FOLDER REDIRECTION\DCASON\DOCUMENTS\R2000_CLIENT\R2000_CLIENT\R2000CLIENT\HTTPSOCKET.CPP
\\SERVER\FOLDER REDIRECTION\DCASON\DOCUMENTS\R2000_CLIENT\R2000_CLIENT\R2000CLIENT\X64\RTSSDEBUG\R2000CLIENT.PDB
^\\SERVER\FOLDER REDIRECTION\DCASON\DOCUMENTS\R2000_CLIENT\R2000_CLIENT\R2000CLIENT\PACKETHEADER.CPP
\\SERVER\FOLDER REDIRECTION\DCASON\DOCUMENTS\R2000_CLIENT\R2000_CLIENT\R2000CLIENT\X64\RTSSDEBUG\R2000CLIENT.PDB
^\\SERVER\FOLDER REDIRECTION\DCASON\DOCUMENTS\R2000_CLIENT\R2000_CLIENT\R2000CLIENT\PACKETPARSER.CPP
\\SERVER\FOLDER REDIRECTION\DCASON\DOCUMENTS\R2000_CLIENT\R2000_CLIENT\R2000CLIENT\X64\RTSSDEBUG\R2000CLIENT.PDB
^\\SERVER\FOLDER REDIRECTION\DCASON\DOCUMENTS\R2000_CLIENT\R2000_CLIENT\R2000CLIENT\R2000CONFIG.CPP
\\SERVER\FOLDER REDIRECTION\DCASON\DOCUMENTS\R2000_CLIENT\R2000_CLIENT\R2000CLIENT\X64\RTSSDEBUG\R2000CLIENT.PDB
^\\SERVER\FOLDER REDIRECTION\DCASON\DOCUMENTS\R2000_CLIENT\R2000_CLIENT\R2000CLIENT\R2000INTERFACE.CPP
\\SERVER\FOLDER REDIRECTION\DCASON\DOCUMENTS\R2000_CLIENT\R2000_CLIENT\R2000CLIENT\X64\RTSSDEBUG\R2000CLIENT.PDB
^\\SERVER\FOLDER REDIRECTION\DCASON\DOCUMENTS\R2000_CLIENT\R2000_CLIENT\R2000CLIENT\DATACLIENT.CPP
\\SERVER\FOLDER REDIRECTION\DCASON\DOCUMENTS\R2000_CLIENT\R2000_CLIENT\R2000CLIENT\X64\RTSSDEBUG\R2000CLIENT.PDB
^\\SERVER\FOLDER REDIRECTION\DCASON\DOCUMENTS\R2000_CLIENT\R2000_CLIENT\R2000CLIENT\RESPONSE.CPP
\\SERVER\FOLDER REDIRECTION\DCASON\DOCUMENTS\R2000_CLIENT\R2000_CLIENT\R2000CLIENT\X64\RTSSDEBUG\R2000CLIENT.PDB
^\\SERVER\FOLDER REDIRECTION\DCASON\DOCUMENTS\R2000_CLIENT\R2000_CLIENT\R2000CLIENT\SCANSIGNALER.CPP
\\SERVER\FOLDER REDIRECTION\DCASON\DOCUMENTS\R2000_CLIENT\R2000_CLIENT\R2000CLIENT\X64\RTSSDEBUG\R2000CLIENT.PDB
