^\\SERVER\FOLDER REDIRECTION\DCASON\DOCUMENTS\R2000_CLIENT\R2000_CLIENT\R2000TESTAPP\X64\RTSSRELEASE\R2000TESTAPP.OBJ
/OUT:"\\SERVER\FOLDER REDIRECTION\DCASON\DOCUMENTS\R2000_CLIENT\R2000_CLIENT\X64\RTSSRELEASE\R2000TESTAPP.RTSS" /INCREMENTAL:NO /NOLOGO /LIBPATH:"C:\PROGRAM FILES\INTERVALZERO\RTX64 SDK\3.1\LIB\AMD64" /LIBPATH:"\\SERVER\FOLDER REDIRECTION\DCASON\DOCUMENTS\R2000_CLIENT\R2000_CLIENT\X64\RTSSRELEASE" STARTUPCRT.LIB LIBCMT.LIB LIBCPMT.LIB LIBUCRT.LIB LIBVCRUNTIME.LIB RTX_RTSS.LIB RTTCPIP.LIB R2000CLIENT.LIB R2000CLIENT.LIB /NODEFAULTLIB /MANIFEST:NO /PDB:"\\SERVER\FOLDER REDIRECTION\DCASON\DOCUMENTS\R2000_CLIENT\R2000_CLIENT\X64\RTSSRELEASE\R2000TESTAPP.PDB" /SUBSYSTEM:NATIVE /STACK:"4194304","4194304" /Driver /OPT:REF /OPT:ICF /TLBID:1 /ENTRY:"_RtapiProcessEntryCRT" /NXCOMPAT /IMPLIB:"\\SERVER\FOLDER REDIRECTION\DCASON\DOCUMENTS\R2000_CLIENT\R2000_CLIENT\X64\RTSSRELEASE\R2000TESTAPP.LIB" /MACHINE:X64 X64\RTSSRELEASE\R2000TESTAPP.OBJ
^F:\R2000_CLIENT\R2000TESTAPP\X64\RTSSRELEASE\R2000TESTAPP.OBJ
/OUT:"F:\R2000_CLIENT\X64\RTSSRELEASE\R2000TESTAPP.RTSS" /INCREMENTAL:NO /NOLOGO /LIBPATH:"C:\PROGRAM FILES\INTERVALZERO\RTX64 SDK\3.1\LIB\AMD64" /LIBPATH:F:\R2000_CLIENT\X64\RTSSRELEASE STARTUPCRT.LIB LIBCMT.LIB LIBCPMT.LIB LIBUCRT.LIB LIBVCRUNTIME.LIB RTX_RTSS.LIB RTTCPIP.LIB R2000CLIENT.LIB R2000CLIENT.LIB /NODEFAULTLIB /MANIFEST:NO /PDB:"F:\R2000_CLIENT\X64\RTSSRELEASE\R2000TESTAPP.PDB" /SUBSYSTEM:NATIVE /STACK:"4194304","4194304" /Driver /OPT:REF /OPT:ICF /TLBID:1 /ENTRY:"_RtapiProcessEntryCRT" /NXCOMPAT /IMPLIB:"F:\R2000_CLIENT\X64\RTSSRELEASE\R2000TESTAPP.LIB" /MACHINE:X64 X64\RTSSRELEASE\R2000TESTAPP.OBJ
^E:\R2000_CLIENT - EXPERIMENT SIMPLE\R2000TESTAPP\X64\RTSSRELEASE\R2000TESTAPP.OBJ
/OUT:"E:\R2000_CLIENT - EXPERIMENT SIMPLE\X64\RTSSRELEASE\R2000TESTAPP.RTSS" /INCREMENTAL:NO /NOLOGO /LIBPATH:"C:\PROGRAM FILES\INTERVALZERO\RTX64 SDK\3.2\LIB\AMD64" /LIBPATH:"E:\R2000_CLIENT - EXPERIMENT SIMPLE\X64\RTSSRELEASE" STARTUPCRT.LIB LIBCMT.LIB LIBCPMT.LIB LIBUCRT.LIB LIBVCRUNTIME.LIB RTX_RTSS.LIB RTTCPIP.LIB R2000CLIENT.LIB R2000CLIENT.LIB /NODEFAULTLIB /MANIFEST:NO /PDB:"E:\R2000_CLIENT - EXPERIMENT SIMPLE\X64\RTSSRELEASE\R2000TESTAPP.PDB" /SUBSYSTEM:NATIVE /STACK:"4194304","4194304" /Driver /OPT:REF /OPT:ICF /TLBID:1 /ENTRY:"_RtapiProcessEntryCRT" /NXCOMPAT /IMPLIB:"E:\R2000_CLIENT - EXPERIMENT SIMPLE\X64\RTSSRELEASE\R2000TESTAPP.LIB" /MACHINE:X64 X64\RTSSRELEASE\R2000TESTAPP.OBJ
^C:\USERS\BLANK\DESKTOP\R2000_CLIENT - EXPERIMENT SIMPLE\R2000TESTAPP\X64\RTSSRELEASE\R2000TESTAPP.OBJ
/OUT:"C:\USERS\BLANK\DESKTOP\R2000_CLIENT - EXPERIMENT SIMPLE\X64\RTSSRELEASE\R2000TESTAPP.RTSS" /INCREMENTAL:NO /NOLOGO /LIBPATH:"C:\PROGRAM FILES\INTERVALZERO\RTX64 SDK\3.2\LIB\AMD64" /LIBPATH:"C:\USERS\BLANK\DESKTOP\R2000_CLIENT - EXPERIMENT SIMPLE\X64\RTSSRELEASE" STARTUPCRT.LIB LIBCMT.LIB LIBCPMT.LIB LIBUCRT.LIB LIBVCRUNTIME.LIB RTX_RTSS.LIB RTTCPIP.LIB R2000CLIENT.LIB R2000CLIENT.LIB /NODEFAULTLIB /MANIFEST:NO /PDB:"C:\USERS\BLANK\DESKTOP\R2000_CLIENT - EXPERIMENT SIMPLE\X64\RTSSRELEASE\R2000TESTAPP.PDB" /SUBSYSTEM:NATIVE /STACK:"4194304","4194304" /Driver /OPT:REF /OPT:ICF /TLBID:1 /ENTRY:"_RtapiProcessEntryCRT" /NXCOMPAT /IMPLIB:"C:\USERS\BLANK\DESKTOP\R2000_CLIENT - EXPERIMENT SIMPLE\X64\RTSSRELEASE\R2000TESTAPP.LIB" /MACHINE:X64 X64\RTSSRELEASE\R2000TESTAPP.OBJ
^C:\USERS\BLANK\DESKTOP\CODE FOR 9-4-18\EDGE DETECTION PLANE FROM TRAILER ANALYSIS\R2000TESTAPP\X64\RTSSRELEASE\ATTHARVESTERDRIVERMULTIPLEALGORITHMMETHOD.OBJ
/OUT:"C:\USERS\BLANK\DESKTOP\CODE FOR 9-4-18\EDGE DETECTION PLANE FROM TRAILER ANALYSIS\X64\RTSSRELEASE\R2000TESTAPP.RTSS" /INCREMENTAL:NO /NOLOGO /LIBPATH:"C:\PROGRAM FILES\INTERVALZERO\RTX64 SDK\3.2\LIB\AMD64" /LIBPATH:"C:\USERS\BLANK\DESKTOP\CODE FOR 9-4-18\EDGE DETECTION PLANE FROM TRAILER ANALYSIS\X64\RTSSRELEASE" STARTUPCRT.LIB LIBCMT.LIB LIBCPMT.LIB LIBUCRT.LIB LIBVCRUNTIME.LIB RTX_RTSS.LIB RTTCPIP.LIB R2000CLIENT.LIB R2000CLIENT.LIB /NODEFAULTLIB /MANIFEST:NO /PDB:"C:\USERS\BLANK\DESKTOP\CODE FOR 9-4-18\EDGE DETECTION PLANE FROM TRAILER ANALYSIS\X64\RTSSRELEASE\R2000TESTAPP.PDB" /SUBSYSTEM:NATIVE /STACK:"4194304","4194304" /Driver /OPT:REF /OPT:ICF /TLBID:1 /ENTRY:"_RtapiProcessEntryCRT" /NXCOMPAT /IMPLIB:"C:\USERS\BLANK\DESKTOP\CODE FOR 9-4-18\EDGE DETECTION PLANE FROM TRAILER ANALYSIS\X64\RTSSRELEASE\R2000TESTAPP.LIB" /MACHINE:X64 X64\RTSSRELEASE\ATTHARVESTERDRIVERMULTIPLEALGORITHMMETHOD.OBJ
^\\SERVER\FOLDER REDIRECTION\DCASON\DESKTOP\CODE FOR 9-4-18\EDGE DETECTION PLANE FROM TRAILER ANALYSIS\R2000TESTAPP\X64\RTSSRELEASE\ATTHARVESTERDRIVERMULTIPLEALGORITHMMETHOD.OBJ
/OUT:"\\SERVER\FOLDER REDIRECTION\DCASON\DESKTOP\CODE FOR 9-4-18\EDGE DETECTION PLANE FROM TRAILER ANALYSIS\X64\RTSSRELEASE\R2000TESTAPP.RTSS" /INCREMENTAL:NO /NOLOGO /LIBPATH:"C:\PROGRAM FILES\INTERVALZERO\RTX64 SDK\3.4\LIB\AMD64" /LIBPATH:"\\SERVER\FOLDER REDIRECTION\DCASON\DESKTOP\CODE FOR 9-4-18\EDGE DETECTION PLANE FROM TRAILER ANALYSIS\X64\RTSSRELEASE" STARTUPCRT.LIB LIBCMT.LIB LIBCPMT.LIB LIBUCRT.LIB LIBVCRUNTIME.LIB RTX_RTSS.LIB RTTCPIP.LIB R2000CLIENT.LIB R2000CLIENT.LIB /NODEFAULTLIB /MANIFEST:NO /PDB:"\\SERVER\FOLDER REDIRECTION\DCASON\DESKTOP\CODE FOR 9-4-18\EDGE DETECTION PLANE FROM TRAILER ANALYSIS\X64\RTSSRELEASE\R2000TESTAPP.PDB" /SUBSYSTEM:NATIVE /STACK:"4194304","4194304" /Driver /OPT:REF /OPT:ICF /TLBID:1 /ENTRY:"_RtapiProcessEntryCRT" /NXCOMPAT /IMPLIB:"\\SERVER\FOLDER REDIRECTION\DCASON\DESKTOP\CODE FOR 9-4-18\EDGE DETECTION PLANE FROM TRAILER ANALYSIS\X64\RTSSRELEASE\R2000TESTAPP.LIB" /MACHINE:X64 X64\RTSSRELEASE\ATTHARVESTERDRIVERMULTIPLEALGORITHMMETHOD.OBJ
^C:\USERS\BLANK\DESKTOP\CODE FOR 9-14-18\EDGE DETECTION PLANE FROM TRAILER ANALYSIS\R2000TESTAPP\X64\RTSSRELEASE\ATTHARVESTERDRIVERMULTIPLEALGORITHMMETHOD.OBJ
/OUT:"C:\USERS\BLANK\DESKTOP\CODE FOR 9-14-18\EDGE DETECTION PLANE FROM TRAILER ANALYSIS\X64\RTSSRELEASE\R2000TESTAPP.RTSS" /INCREMENTAL:NO /NOLOGO /LIBPATH:"C:\PROGRAM FILES\INTERVALZERO\RTX64 SDK\3.4\LIB\AMD64" /LIBPATH:"C:\USERS\BLANK\DESKTOP\CODE FOR 9-14-18\EDGE DETECTION PLANE FROM TRAILER ANALYSIS\X64\RTSSRELEASE" STARTUPCRT.LIB LIBCMT.LIB LIBCPMT.LIB LIBUCRT.LIB LIBVCRUNTIME.LIB RTX_RTSS.LIB RTTCPIP.LIB R2000CLIENT.LIB R2000CLIENT.LIB /NODEFAULTLIB /MANIFEST:NO /PDB:"C:\USERS\BLANK\DESKTOP\CODE FOR 9-14-18\EDGE DETECTION PLANE FROM TRAILER ANALYSIS\X64\RTSSRELEASE\R2000TESTAPP.PDB" /SUBSYSTEM:NATIVE /STACK:"4194304","4194304" /Driver /OPT:REF /OPT:ICF /TLBID:1 /ENTRY:"_RtapiProcessEntryCRT" /NXCOMPAT /IMPLIB:"C:\USERS\BLANK\DESKTOP\CODE FOR 9-14-18\EDGE DETECTION PLANE FROM TRAILER ANALYSIS\X64\RTSSRELEASE\R2000TESTAPP.LIB" /MACHINE:X64 X64\RTSSRELEASE\ATTHARVESTERDRIVERMULTIPLEALGORITHMMETHOD.OBJ
^E:\CODE FOR 9-14-18\EDGE DETECTION PLANE FROM TRAILER ANALYSIS\R2000TESTAPP\X64\RTSSRELEASE\ATTHARVESTERDRIVERMULTIPLEALGORITHMMETHOD.OBJ
/OUT:"E:\CODE FOR 9-14-18\EDGE DETECTION PLANE FROM TRAILER ANALYSIS\X64\RTSSRELEASE\R2000TESTAPP.RTSS" /INCREMENTAL:NO /NOLOGO /LIBPATH:"C:\PROGRAM FILES\INTERVALZERO\RTX64 SDK\3.4\LIB\AMD64" /LIBPATH:"E:\CODE FOR 9-14-18\EDGE DETECTION PLANE FROM TRAILER ANALYSIS\X64\RTSSRELEASE" STARTUPCRT.LIB LIBCMT.LIB LIBCPMT.LIB LIBUCRT.LIB LIBVCRUNTIME.LIB RTX_RTSS.LIB RTTCPIP.LIB R2000CLIENT.LIB R2000CLIENT.LIB /NODEFAULTLIB /MANIFEST:NO /PDB:"E:\CODE FOR 9-14-18\EDGE DETECTION PLANE FROM TRAILER ANALYSIS\X64\RTSSRELEASE\R2000TESTAPP.PDB" /SUBSYSTEM:NATIVE /STACK:"4194304","4194304" /Driver /OPT:REF /OPT:ICF /TLBID:1 /ENTRY:"_RtapiProcessEntryCRT" /NXCOMPAT /IMPLIB:"E:\CODE FOR 9-14-18\EDGE DETECTION PLANE FROM TRAILER ANALYSIS\X64\RTSSRELEASE\R2000TESTAPP.LIB" /MACHINE:X64 X64\RTSSRELEASE\ATTHARVESTERDRIVERMULTIPLEALGORITHMMETHOD.OBJ
^D:\CODE FOR 9-14-18\EDGE DETECTION PLANE FROM TRAILER ANALYSIS\R2000TESTAPP\X64\RTSSRELEASE\ATTHARVESTERDRIVERMULTIPLEALGORITHMMETHOD.OBJ
/OUT:"D:\CODE FOR 9-14-18\EDGE DETECTION PLANE FROM TRAILER ANALYSIS\X64\RTSSRELEASE\R2000TESTAPP.RTSS" /INCREMENTAL:NO /NOLOGO /LIBPATH:"C:\PROGRAM FILES\INTERVALZERO\RTX64 SDK\3.4\LIB\AMD64" /LIBPATH:"D:\CODE FOR 9-14-18\EDGE DETECTION PLANE FROM TRAILER ANALYSIS\X64\RTSSRELEASE" STARTUPCRT.LIB LIBCMT.LIB LIBCPMT.LIB LIBUCRT.LIB LIBVCRUNTIME.LIB RTX_RTSS.LIB RTTCPIP.LIB R2000CLIENT.LIB R2000CLIENT.LIB /NODEFAULTLIB /MANIFEST:NO /PDB:"D:\CODE FOR 9-14-18\EDGE DETECTION PLANE FROM TRAILER ANALYSIS\X64\RTSSRELEASE\R2000TESTAPP.PDB" /SUBSYSTEM:NATIVE /STACK:"4194304","4194304" /Driver /OPT:REF /OPT:ICF /TLBID:1 /ENTRY:"_RtapiProcessEntryCRT" /NXCOMPAT /IMPLIB:"D:\CODE FOR 9-14-18\EDGE DETECTION PLANE FROM TRAILER ANALYSIS\X64\RTSSRELEASE\R2000TESTAPP.LIB" /MACHINE:X64 X64\RTSSRELEASE\ATTHARVESTERDRIVERMULTIPLEALGORITHMMETHOD.OBJ
^C:\USERS\BLANK\DESKTOP\CODE FOR 9-14-18\PRESERVED FROM 9-25-2018\EDGE DETECTION PLANE FROM TRAILER ANALYSIS\R2000TESTAPP\X64\RTSSRELEASE\ATTHARVESTERDRIVERMULTIPLEALGORITHMMETHOD.OBJ
/OUT:"C:\USERS\BLANK\DESKTOP\CODE FOR 9-14-18\PRESERVED FROM 9-25-2018\EDGE DETECTION PLANE FROM TRAILER ANALYSIS\X64\RTSSRELEASE\R2000TESTAPP.RTSS" /INCREMENTAL:NO /NOLOGO /LIBPATH:"C:\PROGRAM FILES\INTERVALZERO\RTX64 SDK\3.4\LIB\AMD64" /LIBPATH:"C:\USERS\BLANK\DESKTOP\CODE FOR 9-14-18\PRESERVED FROM 9-25-2018\EDGE DETECTION PLANE FROM TRAILER ANALYSIS\X64\RTSSRELEASE" STARTUPCRT.LIB LIBCMT.LIB LIBCPMT.LIB LIBUCRT.LIB LIBVCRUNTIME.LIB RTX_RTSS.LIB RTTCPIP.LIB R2000CLIENT.LIB R2000CLIENT.LIB /NODEFAULTLIB /MANIFEST:NO /PDB:"C:\USERS\BLANK\DESKTOP\CODE FOR 9-14-18\PRESERVED FROM 9-25-2018\EDGE DETECTION PLANE FROM TRAILER ANALYSIS\X64\RTSSRELEASE\R2000TESTAPP.PDB" /SUBSYSTEM:NATIVE /STACK:"4194304","4194304" /Driver /OPT:REF /OPT:ICF /TLBID:1 /ENTRY:"_RtapiProcessEntryCRT" /NXCOMPAT /IMPLIB:"C:\USERS\BLANK\DESKTOP\CODE FOR 9-14-18\PRESERVED FROM 9-25-2018\EDGE DETECTION PLANE FROM TRAILER ANALYSIS\X64\RTSSRELEASE\R2000TESTAPP.LIB" /MACHINE:X64 X64\RTSSRELEASE\ATTHARVESTERDRIVERMULTIPLEALGORITHMMETHOD.OBJ
^C:\USERS\BLANK\DESKTOP\ATTWORKINGCODE\ATTPRESERVEDFROM9-29-2018\EDGE DETECTION PLANE FROM TRAILER ANALYSIS\R2000TESTAPP\X64\RTSSRELEASE\ATTHARVESTERDRIVERMULTIPLEALGORITHMMETHOD.OBJ
/OUT:"C:\USERS\BLANK\DESKTOP\ATTWORKINGCODE\ATTPRESERVEDFROM9-29-2018\EDGE DETECTION PLANE FROM TRAILER ANALYSIS\X64\RTSSRELEASE\R2000TESTAPP.RTSS" /INCREMENTAL:NO /NOLOGO /LIBPATH:"C:\PROGRAM FILES\INTERVALZERO\RTX64 SDK\3.4\LIB\AMD64" /LIBPATH:"C:\USERS\BLANK\DESKTOP\ATTWORKINGCODE\ATTPRESERVEDFROM9-29-2018\EDGE DETECTION PLANE FROM TRAILER ANALYSIS\X64\RTSSRELEASE" STARTUPCRT.LIB LIBCMT.LIB LIBCPMT.LIB LIBUCRT.LIB LIBVCRUNTIME.LIB RTX_RTSS.LIB RTTCPIP.LIB R2000CLIENT.LIB R2000CLIENT.LIB /NODEFAULTLIB /MANIFEST:NO /PDB:"C:\USERS\BLANK\DESKTOP\ATTWORKINGCODE\ATTPRESERVEDFROM9-29-2018\EDGE DETECTION PLANE FROM TRAILER ANALYSIS\X64\RTSSRELEASE\R2000TESTAPP.PDB" /SUBSYSTEM:NATIVE /STACK:"4194304","4194304" /Driver /OPT:REF /OPT:ICF /TLBID:1 /ENTRY:"_RtapiProcessEntryCRT" /NXCOMPAT /IMPLIB:"C:\USERS\BLANK\DESKTOP\ATTWORKINGCODE\ATTPRESERVEDFROM9-29-2018\EDGE DETECTION PLANE FROM TRAILER ANALYSIS\X64\RTSSRELEASE\R2000TESTAPP.LIB" /MACHINE:X64 X64\RTSSRELEASE\ATTHARVESTERDRIVERMULTIPLEALGORITHMMETHOD.OBJ
