^\\SERVER\FOLDER REDIRECTION\DCASON\DOCUMENTS\R2000_CLIENT\R2000_CLIENT\R2000TESTAPP\X64\RTSSDEBUG\R2000TESTAPP.OBJ
\\SERVER\FOLDER REDIRECTION\DCASON\DOCUMENTS\R2000_CLIENT\R2000_CLIENT\X64\RTSSDEBUG\R2000TESTAPP.RTSS
\\SERVER\FOLDER REDIRECTION\DCASON\DOCUMENTS\R2000_CLIENT\R2000_CLIENT\X64\RTSSDEBUG\R2000TESTAPP.PDB
